<?xml version="1.0" encoding="utf-8"?>
<!-- Generator: Adobe Illustrator 24.0.0, SVG Export Plug-In . SVG Version: 6.00 Build 0)  -->
<svg version="1.1" id="Layer_1" xmlns="http://www.w3.org/2000/svg" xmlns:xlink="http://www.w3.org/1999/xlink" x="0px" y="0px"
	 viewBox="0 0 1362.9 186.5" style="enable-background:new 0 0 1362.9 186.5;" xml:space="preserve">
<style type="text/css">
	.st0{fill:#d1f1ff;}
</style>
<path class="st0" d="M0,36.7c0,0,92.9,45.5,191.7,43.2c98.8-2.3,129.3-9,241.1-52.5c109.7-42.7,283.4-19.5,328.7,0
	c47,20.2,150.8,54.9,237.2,52.6s146.3-19.8,220.2-52.6s144-26.8,144-26.8v185.9H0V36.7z"/>
</svg>
